…
``` r
# (1) have the rows be the industries
industry_frequencies <-
  startups_industry %>% 
  # "industry" column gathers the industries (i.e. keys) from the former columns
  # "binary" column holds the values from the former columns
  gather("industry", "binary", 2:41) %>% 
  #summarise the binary columns from the DTM into two values per industry (one for success/fail each)
  group_by(`dependent-company_status`, industry)

industry_frequencies
```

    ## # A tibble: 18,880 x 4
    ## # Groups:   dependent-company_status, industry [80]
    ##    `dependent-company_status` government industry binary
    ##    <chr>                           <dbl> <chr>    <chr> 
    ##  1 Success                             0 document text1 
    ##  2 Success                             0 document text2 
    ##  3 Success                             0 document text3 
    ##  4 Success                             0 document text4 
    ##  5 Success                             0 document text5 
    ##  6 Success                             0 document text6 
    ##  7 Success                             0 document text7 
    ##  8 Success                             0 document text8 
    ##  9 Success                             0 document text9 
    ## 10 Success                             0 document text10
    ## # ... with 18,870 more rows
